-- Merging decision tree log ---
manifest
ADDED from E:\Project Android\Registration\app\src\main\AndroidManifest.xml:2:1-36:12
INJECTED from E:\Project Android\Registration\app\src\main\AndroidManifest.xml:2:1-36:12
INJECTED from E:\Project Android\Registration\app\src\main\AndroidManifest.xml:2:1-36:12
INJECTED from E:\Project Android\Registration\app\src\main\AndroidManifest.xml:2:1-36:12
MERGED from [com.android.support:design:28.0.0] C:\Users\Martin\.gradle\caches\transforms-1\files-1.1\design-28.0.0.aar\5e530318f66906399ae426c48b05cc7f\AndroidManifest.xml:17:1-24:12
MERGED from [com.android.support:appcompat-v7:28.0.0] C:\Users\Martin\.gradle\caches\transforms-1\files-1.1\appcompat-v7-28.0.0.aar\ebbb61a0983f2cd5ec23bb323a630769\AndroidManifest.xml:17:1-22:12
MERGED from [com.android.support.constraint:constraint-layout:1.1.3] C:\Users\Martin\.gradle\caches\transforms-1\files-1.1\constraint-layout-1.1.3.aar\a0ebbe2a768af265aa44a825e7032b26\AndroidManifest.xml:2:1-11:12
MERGED from [com.toptoche.searchablespinner:searchablespinnerlibrary:1.3.1] C:\Users\Martin\.gradle\caches\transforms-1\files-1.1\searchablespinnerlibrary-1.3.1.aar\07a4acaffa94a0736a529f5bdee23d19\AndroidManifest.xml:2:1-17:12
MERGED from [com.jakewharton:butterknife:8.8.1] C:\Users\Martin\.gradle\caches\transforms-1\files-1.1\butterknife-8.8.1.aar\3b7331558b3d02a55bbabdf4713a3b10\AndroidManifest.xml:2:1-7:12
MERGED from [com.android.support:support-fragment:28.0.0] C:\Users\Martin\.gradle\caches\transforms-1\files-1.1\support-fragment-28.0.0.aar\afaa66044e8a1fb2ca954e1139c39378\AndroidManifest.xml:17:1-22:12
MERGED from [com.android.support:animated-vector-drawable:28.0.0] C:\Users\Martin\.gradle\caches\transforms-1\files-1.1\animated-vector-drawable-28.0.0.aar\1fd290f1f4c2739d3fa0505c54ffaa4e\AndroidManifest.xml:17:1-22:12
MERGED from [com.android.support:recyclerview-v7:28.0.0] C:\Users\Martin\.gradle\caches\transforms-1\files-1.1\recyclerview-v7-28.0.0.aar\b544ade590de57c767185a5830044dca\AndroidManifest.xml:17:1-22:12
MERGED from [com.android.support:support-core-ui:28.0.0] C:\Users\Martin\.gradle\caches\transforms-1\files-1.1\support-core-ui-28.0.0.aar\9d25d968c318bc479846e4a801c9ac1e\AndroidManifest.xml:17:1-22:12
MERGED from [com.android.support:support-core-utils:28.0.0] C:\Users\Martin\.gradle\caches\transforms-1\files-1.1\support-core-utils-28.0.0.aar\df04979c86b92caa433e6abe913a56c5\AndroidManifest.xml:17:1-22:12
MERGED from [com.android.support:support-vector-drawable:28.0.0] C:\Users\Martin\.gradle\caches\transforms-1\files-1.1\support-vector-drawable-28.0.0.aar\7381c67a4b3d193216f3ec64a8164837\AndroidManifest.xml:17:1-22:12
MERGED from [com.android.support:transition:28.0.0] C:\Users\Martin\.gradle\caches\transforms-1\files-1.1\transition-28.0.0.aar\2bec81e981243b01c7e0ac72bdc27a03\AndroidManifest.xml:17:1-22:12
MERGED from [com.android.support:loader:28.0.0] C:\Users\Martin\.gradle\caches\transforms-1\files-1.1\loader-28.0.0.aar\34dadb34797e88b2212fbbd996783283\AndroidManifest.xml:17:1-22:12
MERGED from [com.android.support:viewpager:28.0.0] C:\Users\Martin\.gradle\caches\transforms-1\files-1.1\viewpager-28.0.0.aar\a3baa4e83b56a651d3633b53c8e43621\AndroidManifest.xml:17:1-22:12
MERGED from [com.android.support:coordinatorlayout:28.0.0] C:\Users\Martin\.gradle\caches\transforms-1\files-1.1\coordinatorlayout-28.0.0.aar\28dab74d55ee429c12971f3179e3b549\AndroidManifest.xml:17:1-22:12
MERGED from [com.android.support:drawerlayout:28.0.0] C:\Users\Martin\.gradle\caches\transforms-1\files-1.1\drawerlayout-28.0.0.aar\2ae650a2d0fb97b71acd1ea9e5758183\AndroidManifest.xml:17:1-22:12
MERGED from [com.android.support:slidingpanelayout:28.0.0] C:\Users\Martin\.gradle\caches\transforms-1\files-1.1\slidingpanelayout-28.0.0.aar\9c1f0444e9f4354d9cef2690366d24f1\AndroidManifest.xml:17:1-22:12
MERGED from [com.android.support:customview:28.0.0] C:\Users\Martin\.gradle\caches\transforms-1\files-1.1\customview-28.0.0.aar\8d512b35f1b92df2ac3856286a417c92\AndroidManifest.xml:17:1-22:12
MERGED from [com.android.support:swiperefreshlayout:28.0.0] C:\Users\Martin\.gradle\caches\transforms-1\files-1.1\swiperefreshlayout-28.0.0.aar\727f80a776aab5bb8c0afd3e5608e9be\AndroidManifest.xml:17:1-22:12
MERGED from [com.android.support:asynclayoutinflater:28.0.0] C:\Users\Martin\.gradle\caches\transforms-1\files-1.1\asynclayoutinflater-28.0.0.aar\1bf6e5cd6904ae3b0c8cac924aea35de\AndroidManifest.xml:17:1-22:12
MERGED from [com.android.support:support-compat:28.0.0] C:\Users\Martin\.gradle\caches\transforms-1\files-1.1\support-compat-28.0.0.aar\6d554bd6d22425a2eb27d93a35d46c06\AndroidManifest.xml:17:1-24:12
MERGED from [com.android.support:versionedparcelable:28.0.0] C:\Users\Martin\.gradle\caches\transforms-1\files-1.1\versionedparcelable-28.0.0.aar\b60cc10e41c664d09909b3c94d6f6302\AndroidManifest.xml:17:1-25:12
MERGED from [com.android.support:cursoradapter:28.0.0] C:\Users\Martin\.gradle\caches\transforms-1\files-1.1\cursoradapter-28.0.0.aar\ab0300b26962aeb5c529c3d0819bfd0e\AndroidManifest.xml:17:1-22:12
MERGED from [com.android.support:cardview-v7:28.0.0] C:\Users\Martin\.gradle\caches\transforms-1\files-1.1\cardview-v7-28.0.0.aar\b77dcf7f7336c1325d730cffa7bce11c\AndroidManifest.xml:17:1-22:12
MERGED from [android.arch.lifecycle:runtime:1.1.1] C:\Users\Martin\.gradle\caches\transforms-1\files-1.1\runtime-1.1.1.aar\64eb65c73a736a1b82b891105c25142c\AndroidManifest.xml:17:1-22:12
MERGED from [com.android.support:documentfile:28.0.0] C:\Users\Martin\.gradle\caches\transforms-1\files-1.1\documentfile-28.0.0.aar\055cb0e5d73d7f2193aeae4fd39bdb76\AndroidManifest.xml:17:1-22:12
MERGED from [com.android.support:localbroadcastmanager:28.0.0] C:\Users\Martin\.gradle\caches\transforms-1\files-1.1\localbroadcastmanager-28.0.0.aar\77d14b4b5f725737b8a72bbe3ba6ae65\AndroidManifest.xml:17:1-22:12
MERGED from [com.android.support:print:28.0.0] C:\Users\Martin\.gradle\caches\transforms-1\files-1.1\print-28.0.0.aar\352d54df7125ddd8cc08864d7659b20b\AndroidManifest.xml:17:1-22:12
MERGED from [android.arch.lifecycle:viewmodel:1.1.1] C:\Users\Martin\.gradle\caches\transforms-1\files-1.1\viewmodel-1.1.1.aar\2a60589fa33d8b967f26cf34b9a5d12c\AndroidManifest.xml:17:1-22:12
MERGED from [com.android.support:interpolator:28.0.0] C:\Users\Martin\.gradle\caches\transforms-1\files-1.1\interpolator-28.0.0.aar\06a08e2317fe4ecf754faea06561ec61\AndroidManifest.xml:17:1-22:12
MERGED from [android.arch.lifecycle:livedata:1.1.1] C:\Users\Martin\.gradle\caches\transforms-1\files-1.1\livedata-1.1.1.aar\0d170dd3ab155543e1e789f214337d33\AndroidManifest.xml:17:1-22:12
MERGED from [android.arch.lifecycle:livedata-core:1.1.1] C:\Users\Martin\.gradle\caches\transforms-1\files-1.1\livedata-core-1.1.1.aar\902104cecca89f252e3541b22f6979f1\AndroidManifest.xml:17:1-22:12
MERGED from [android.arch.core:runtime:1.1.1] C:\Users\Martin\.gradle\caches\transforms-1\files-1.1\runtime-1.1.1.aar\ad2883266826e505c26fdc454e7f6a91\AndroidManifest.xml:17:1-22:12
INJECTED from E:\Project Android\Registration\app\src\main\AndroidManifest.xml:2:1-36:12
INJECTED from E:\Project Android\Registration\app\src\main\AndroidManifest.xml:2:1-36:12
INJECTED from E:\Project Android\Registration\app\src\main\AndroidManifest.xml:2:1-36:12
	package
		ADDED from E:\Project Android\Registration\app\src\main\AndroidManifest.xml:3:5-40
		INJECTED from E:\Project Android\Registration\app\src\main\AndroidManifest.xml
		INJECTED from E:\Project Android\Registration\app\src\main\AndroidManifest.xml
	android:versionName
		INJECTED from E:\Project Android\Registration\app\src\main\AndroidManifest.xml
		ADDED from E:\Project Android\Registration\app\src\main\AndroidManifest.xml:2:1-36:12
		INJECTED from E:\Project Android\Registration\app\src\main\AndroidManifest.xml
	android:versionCode
		INJECTED from E:\Project Android\Registration\app\src\main\AndroidManifest.xml
		ADDED from E:\Project Android\Registration\app\src\main\AndroidManifest.xml:2:1-36:12
		INJECTED from E:\Project Android\Registration\app\src\main\AndroidManifest.xml
	xmlns:android
		ADDED from E:\Project Android\Registration\app\src\main\AndroidManifest.xml:2:11-69
uses-permission#android.permission.INTERNET
ADDED from E:\Project Android\Registration\app\src\main\AndroidManifest.xml:5:5-67
	android:name
		ADDED from E:\Project Android\Registration\app\src\main\AndroidManifest.xml:5:22-64
application
ADDED from E:\Project Android\Registration\app\src\main\AndroidManifest.xml:7:5-34:19
MERGED from [com.android.support:design:28.0.0] C:\Users\Martin\.gradle\caches\transforms-1\files-1.1\design-28.0.0.aar\5e530318f66906399ae426c48b05cc7f\AndroidManifest.xml:22:5-20
MERGED from [com.android.support:design:28.0.0] C:\Users\Martin\.gradle\caches\transforms-1\files-1.1\design-28.0.0.aar\5e530318f66906399ae426c48b05cc7f\AndroidManifest.xml:22:5-20
MERGED from [com.android.support.constraint:constraint-layout:1.1.3] C:\Users\Martin\.gradle\caches\transforms-1\files-1.1\constraint-layout-1.1.3.aar\a0ebbe2a768af265aa44a825e7032b26\AndroidManifest.xml:9:5-20
MERGED from [com.android.support.constraint:constraint-layout:1.1.3] C:\Users\Martin\.gradle\caches\transforms-1\files-1.1\constraint-layout-1.1.3.aar\a0ebbe2a768af265aa44a825e7032b26\AndroidManifest.xml:9:5-20
MERGED from [com.toptoche.searchablespinner:searchablespinnerlibrary:1.3.1] C:\Users\Martin\.gradle\caches\transforms-1\files-1.1\searchablespinnerlibrary-1.3.1.aar\07a4acaffa94a0736a529f5bdee23d19\AndroidManifest.xml:11:5-15:19
MERGED from [com.toptoche.searchablespinner:searchablespinnerlibrary:1.3.1] C:\Users\Martin\.gradle\caches\transforms-1\files-1.1\searchablespinnerlibrary-1.3.1.aar\07a4acaffa94a0736a529f5bdee23d19\AndroidManifest.xml:11:5-15:19
MERGED from [com.android.support:support-compat:28.0.0] C:\Users\Martin\.gradle\caches\transforms-1\files-1.1\support-compat-28.0.0.aar\6d554bd6d22425a2eb27d93a35d46c06\AndroidManifest.xml:22:5-94
MERGED from [com.android.support:support-compat:28.0.0] C:\Users\Martin\.gradle\caches\transforms-1\files-1.1\support-compat-28.0.0.aar\6d554bd6d22425a2eb27d93a35d46c06\AndroidManifest.xml:22:5-94
MERGED from [com.android.support:versionedparcelable:28.0.0] C:\Users\Martin\.gradle\caches\transforms-1\files-1.1\versionedparcelable-28.0.0.aar\b60cc10e41c664d09909b3c94d6f6302\AndroidManifest.xml:22:5-23:19
MERGED from [com.android.support:versionedparcelable:28.0.0] C:\Users\Martin\.gradle\caches\transforms-1\files-1.1\versionedparcelable-28.0.0.aar\b60cc10e41c664d09909b3c94d6f6302\AndroidManifest.xml:22:5-23:19
	android:appComponentFactory
		ADDED from [com.android.support:support-compat:28.0.0] C:\Users\Martin\.gradle\caches\transforms-1\files-1.1\support-compat-28.0.0.aar\6d554bd6d22425a2eb27d93a35d46c06\AndroidManifest.xml:22:18-91
	android:supportsRtl
		ADDED from E:\Project Android\Registration\app\src\main\AndroidManifest.xml:13:9-35
	android:label
		ADDED from E:\Project Android\Registration\app\src\main\AndroidManifest.xml:11:9-41
	android:roundIcon
		ADDED from E:\Project Android\Registration\app\src\main\AndroidManifest.xml:12:9-54
	android:icon
		ADDED from E:\Project Android\Registration\app\src\main\AndroidManifest.xml:10:9-49
	android:allowBackup
		ADDED from E:\Project Android\Registration\app\src\main\AndroidManifest.xml:9:9-35
	android:theme
		ADDED from E:\Project Android\Registration\app\src\main\AndroidManifest.xml:14:9-40
	android:usesCleartextTraffic
		ADDED from E:\Project Android\Registration\app\src\main\AndroidManifest.xml:15:9-44
	android:name
		ADDED from E:\Project Android\Registration\app\src\main\AndroidManifest.xml:8:9-45
activity#co.id.mobile.registration.Activity.ReviewActivity
ADDED from E:\Project Android\Registration\app\src\main\AndroidManifest.xml:16:9-18:72
	android:windowSoftInputMode
		ADDED from E:\Project Android\Registration\app\src\main\AndroidManifest.xml:18:13-60
	android:theme
		ADDED from E:\Project Android\Registration\app\src\main\AndroidManifest.xml:17:13-48
	android:name
		ADDED from E:\Project Android\Registration\app\src\main\AndroidManifest.xml:16:19-58
activity#co.id.mobile.registration.Activity.AlamatKTPActivity
ADDED from E:\Project Android\Registration\app\src\main\AndroidManifest.xml:19:9-22:63
	android:windowSoftInputMode
		ADDED from E:\Project Android\Registration\app\src\main\AndroidManifest.xml:22:13-60
	android:theme
		ADDED from E:\Project Android\Registration\app\src\main\AndroidManifest.xml:21:13-48
	android:name
		ADDED from E:\Project Android\Registration\app\src\main\AndroidManifest.xml:20:13-55
activity#co.id.mobile.registration.Activity.DataDiriActivity
ADDED from E:\Project Android\Registration\app\src\main\AndroidManifest.xml:23:9-32:20
	android:windowSoftInputMode
		ADDED from E:\Project Android\Registration\app\src\main\AndroidManifest.xml:26:13-60
	android:theme
		ADDED from E:\Project Android\Registration\app\src\main\AndroidManifest.xml:25:13-48
	android:name
		ADDED from E:\Project Android\Registration\app\src\main\AndroidManifest.xml:24:13-54
intent-filter#action:name:android.intent.action.MAIN+category:name:android.intent.category.LAUNCHER
ADDED from E:\Project Android\Registration\app\src\main\AndroidManifest.xml:27:13-31:29
action#android.intent.action.MAIN
ADDED from E:\Project Android\Registration\app\src\main\AndroidManifest.xml:28:17-69
	android:name
		ADDED from E:\Project Android\Registration\app\src\main\AndroidManifest.xml:28:25-66
category#android.intent.category.LAUNCHER
ADDED from E:\Project Android\Registration\app\src\main\AndroidManifest.xml:30:17-77
	android:name
		ADDED from E:\Project Android\Registration\app\src\main\AndroidManifest.xml:30:27-74
activity#co.id.mobile.registration.Activity.MainActivity
ADDED from E:\Project Android\Registration\app\src\main\AndroidManifest.xml:33:9-59
	android:name
		ADDED from E:\Project Android\Registration\app\src\main\AndroidManifest.xml:33:19-56
uses-sdk
INJECTED from E:\Project Android\Registration\app\src\main\AndroidManifest.xml reason: use-sdk injection requested
INJECTED from E:\Project Android\Registration\app\src\main\AndroidManifest.xml
INJECTED from E:\Project Android\Registration\app\src\main\AndroidManifest.xml
MERGED from [com.android.support:design:28.0.0] C:\Users\Martin\.gradle\caches\transforms-1\files-1.1\design-28.0.0.aar\5e530318f66906399ae426c48b05cc7f\AndroidManifest.xml:20:5-44
MERGED from [com.android.support:design:28.0.0] C:\Users\Martin\.gradle\caches\transforms-1\files-1.1\design-28.0.0.aar\5e530318f66906399ae426c48b05cc7f\AndroidManifest.xml:20:5-44
MERGED from [com.android.support:appcompat-v7:28.0.0] C:\Users\Martin\.gradle\caches\transforms-1\files-1.1\appcompat-v7-28.0.0.aar\ebbb61a0983f2cd5ec23bb323a630769\AndroidManifest.xml:20:5-44
MERGED from [com.android.support:appcompat-v7:28.0.0] C:\Users\Martin\.gradle\caches\transforms-1\files-1.1\appcompat-v7-28.0.0.aar\ebbb61a0983f2cd5ec23bb323a630769\AndroidManifest.xml:20:5-44
MERGED from [com.android.support.constraint:constraint-layout:1.1.3] C:\Users\Martin\.gradle\caches\transforms-1\files-1.1\constraint-layout-1.1.3.aar\a0ebbe2a768af265aa44a825e7032b26\AndroidManifest.xml:5:5-7:41
MERGED from [com.android.support.constraint:constraint-layout:1.1.3] C:\Users\Martin\.gradle\caches\transforms-1\files-1.1\constraint-layout-1.1.3.aar\a0ebbe2a768af265aa44a825e7032b26\AndroidManifest.xml:5:5-7:41
MERGED from [com.toptoche.searchablespinner:searchablespinnerlibrary:1.3.1] C:\Users\Martin\.gradle\caches\transforms-1\files-1.1\searchablespinnerlibrary-1.3.1.aar\07a4acaffa94a0736a529f5bdee23d19\AndroidManifest.xml:7:5-9:41
MERGED from [com.toptoche.searchablespinner:searchablespinnerlibrary:1.3.1] C:\Users\Martin\.gradle\caches\transforms-1\files-1.1\searchablespinnerlibrary-1.3.1.aar\07a4acaffa94a0736a529f5bdee23d19\AndroidManifest.xml:7:5-9:41
MERGED from [com.jakewharton:butterknife:8.8.1] C:\Users\Martin\.gradle\caches\transforms-1\files-1.1\butterknife-8.8.1.aar\3b7331558b3d02a55bbabdf4713a3b10\AndroidManifest.xml:5:5-43
MERGED from [com.jakewharton:butterknife:8.8.1] C:\Users\Martin\.gradle\caches\transforms-1\files-1.1\butterknife-8.8.1.aar\3b7331558b3d02a55bbabdf4713a3b10\AndroidManifest.xml:5:5-43
MERGED from [com.android.support:support-fragment:28.0.0] C:\Users\Martin\.gradle\caches\transforms-1\files-1.1\support-fragment-28.0.0.aar\afaa66044e8a1fb2ca954e1139c39378\AndroidManifest.xml:20:5-44
MERGED from [com.android.support:support-fragment:28.0.0] C:\Users\Martin\.gradle\caches\transforms-1\files-1.1\support-fragment-28.0.0.aar\afaa66044e8a1fb2ca954e1139c39378\AndroidManifest.xml:20:5-44
MERGED from [com.android.support:animated-vector-drawable:28.0.0] C:\Users\Martin\.gradle\caches\transforms-1\files-1.1\animated-vector-drawable-28.0.0.aar\1fd290f1f4c2739d3fa0505c54ffaa4e\AndroidManifest.xml:20:5-44
MERGED from [com.android.support:animated-vector-drawable:28.0.0] C:\Users\Martin\.gradle\caches\transforms-1\files-1.1\animated-vector-drawable-28.0.0.aar\1fd290f1f4c2739d3fa0505c54ffaa4e\AndroidManifest.xml:20:5-44
MERGED from [com.android.support:recyclerview-v7:28.0.0] C:\Users\Martin\.gradle\caches\transforms-1\files-1.1\recyclerview-v7-28.0.0.aar\b544ade590de57c767185a5830044dca\AndroidManifest.xml:20:5-44
MERGED from [com.android.support:recyclerview-v7:28.0.0] C:\Users\Martin\.gradle\caches\transforms-1\files-1.1\recyclerview-v7-28.0.0.aar\b544ade590de57c767185a5830044dca\AndroidManifest.xml:20:5-44
MERGED from [com.android.support:support-core-ui:28.0.0] C:\Users\Martin\.gradle\caches\transforms-1\files-1.1\support-core-ui-28.0.0.aar\9d25d968c318bc479846e4a801c9ac1e\AndroidManifest.xml:20:5-44
MERGED from [com.android.support:support-core-ui:28.0.0] C:\Users\Martin\.gradle\caches\transforms-1\files-1.1\support-core-ui-28.0.0.aar\9d25d968c318bc479846e4a801c9ac1e\AndroidManifest.xml:20:5-44
MERGED from [com.android.support:support-core-utils:28.0.0] C:\Users\Martin\.gradle\caches\transforms-1\files-1.1\support-core-utils-28.0.0.aar\df04979c86b92caa433e6abe913a56c5\AndroidManifest.xml:20:5-44
MERGED from [com.android.support:support-core-utils:28.0.0] C:\Users\Martin\.gradle\caches\transforms-1\files-1.1\support-core-utils-28.0.0.aar\df04979c86b92caa433e6abe913a56c5\AndroidManifest.xml:20:5-44
MERGED from [com.android.support:support-vector-drawable:28.0.0] C:\Users\Martin\.gradle\caches\transforms-1\files-1.1\support-vector-drawable-28.0.0.aar\7381c67a4b3d193216f3ec64a8164837\AndroidManifest.xml:20:5-44
MERGED from [com.android.support:support-vector-drawable:28.0.0] C:\Users\Martin\.gradle\caches\transforms-1\files-1.1\support-vector-drawable-28.0.0.aar\7381c67a4b3d193216f3ec64a8164837\AndroidManifest.xml:20:5-44
MERGED from [com.android.support:transition:28.0.0] C:\Users\Martin\.gradle\caches\transforms-1\files-1.1\transition-28.0.0.aar\2bec81e981243b01c7e0ac72bdc27a03\AndroidManifest.xml:20:5-44
MERGED from [com.android.support:transition:28.0.0] C:\Users\Martin\.gradle\caches\transforms-1\files-1.1\transition-28.0.0.aar\2bec81e981243b01c7e0ac72bdc27a03\AndroidManifest.xml:20:5-44
MERGED from [com.android.support:loader:28.0.0] C:\Users\Martin\.gradle\caches\transforms-1\files-1.1\loader-28.0.0.aar\34dadb34797e88b2212fbbd996783283\AndroidManifest.xml:20:5-44
MERGED from [com.android.support:loader:28.0.0] C:\Users\Martin\.gradle\caches\transforms-1\files-1.1\loader-28.0.0.aar\34dadb34797e88b2212fbbd996783283\AndroidManifest.xml:20:5-44
MERGED from [com.android.support:viewpager:28.0.0] C:\Users\Martin\.gradle\caches\transforms-1\files-1.1\viewpager-28.0.0.aar\a3baa4e83b56a651d3633b53c8e43621\AndroidManifest.xml:20:5-44
MERGED from [com.android.support:viewpager:28.0.0] C:\Users\Martin\.gradle\caches\transforms-1\files-1.1\viewpager-28.0.0.aar\a3baa4e83b56a651d3633b53c8e43621\AndroidManifest.xml:20:5-44
MERGED from [com.android.support:coordinatorlayout:28.0.0] C:\Users\Martin\.gradle\caches\transforms-1\files-1.1\coordinatorlayout-28.0.0.aar\28dab74d55ee429c12971f3179e3b549\AndroidManifest.xml:20:5-44
MERGED from [com.android.support:coordinatorlayout:28.0.0] C:\Users\Martin\.gradle\caches\transforms-1\files-1.1\coordinatorlayout-28.0.0.aar\28dab74d55ee429c12971f3179e3b549\AndroidManifest.xml:20:5-44
MERGED from [com.android.support:drawerlayout:28.0.0] C:\Users\Martin\.gradle\caches\transforms-1\files-1.1\drawerlayout-28.0.0.aar\2ae650a2d0fb97b71acd1ea9e5758183\AndroidManifest.xml:20:5-44
MERGED from [com.android.support:drawerlayout:28.0.0] C:\Users\Martin\.gradle\caches\transforms-1\files-1.1\drawerlayout-28.0.0.aar\2ae650a2d0fb97b71acd1ea9e5758183\AndroidManifest.xml:20:5-44
MERGED from [com.android.support:slidingpanelayout:28.0.0] C:\Users\Martin\.gradle\caches\transforms-1\files-1.1\slidingpanelayout-28.0.0.aar\9c1f0444e9f4354d9cef2690366d24f1\AndroidManifest.xml:20:5-44
MERGED from [com.android.support:slidingpanelayout:28.0.0] C:\Users\Martin\.gradle\caches\transforms-1\files-1.1\slidingpanelayout-28.0.0.aar\9c1f0444e9f4354d9cef2690366d24f1\AndroidManifest.xml:20:5-44
MERGED from [com.android.support:customview:28.0.0] C:\Users\Martin\.gradle\caches\transforms-1\files-1.1\customview-28.0.0.aar\8d512b35f1b92df2ac3856286a417c92\AndroidManifest.xml:20:5-44
MERGED from [com.android.support:customview:28.0.0] C:\Users\Martin\.gradle\caches\transforms-1\files-1.1\customview-28.0.0.aar\8d512b35f1b92df2ac3856286a417c92\AndroidManifest.xml:20:5-44
MERGED from [com.android.support:swiperefreshlayout:28.0.0] C:\Users\Martin\.gradle\caches\transforms-1\files-1.1\swiperefreshlayout-28.0.0.aar\727f80a776aab5bb8c0afd3e5608e9be\AndroidManifest.xml:20:5-44
MERGED from [com.android.support:swiperefreshlayout:28.0.0] C:\Users\Martin\.gradle\caches\transforms-1\files-1.1\swiperefreshlayout-28.0.0.aar\727f80a776aab5bb8c0afd3e5608e9be\AndroidManifest.xml:20:5-44
MERGED from [com.android.support:asynclayoutinflater:28.0.0] C:\Users\Martin\.gradle\caches\transforms-1\files-1.1\asynclayoutinflater-28.0.0.aar\1bf6e5cd6904ae3b0c8cac924aea35de\AndroidManifest.xml:20:5-44
MERGED from [com.android.support:asynclayoutinflater:28.0.0] C:\Users\Martin\.gradle\caches\transforms-1\files-1.1\asynclayoutinflater-28.0.0.aar\1bf6e5cd6904ae3b0c8cac924aea35de\AndroidManifest.xml:20:5-44
MERGED from [com.android.support:support-compat:28.0.0] C:\Users\Martin\.gradle\caches\transforms-1\files-1.1\support-compat-28.0.0.aar\6d554bd6d22425a2eb27d93a35d46c06\AndroidManifest.xml:20:5-44
MERGED from [com.android.support:support-compat:28.0.0] C:\Users\Martin\.gradle\caches\transforms-1\files-1.1\support-compat-28.0.0.aar\6d554bd6d22425a2eb27d93a35d46c06\AndroidManifest.xml:20:5-44
MERGED from [com.android.support:versionedparcelable:28.0.0] C:\Users\Martin\.gradle\caches\transforms-1\files-1.1\versionedparcelable-28.0.0.aar\b60cc10e41c664d09909b3c94d6f6302\AndroidManifest.xml:20:5-44
MERGED from [com.android.support:versionedparcelable:28.0.0] C:\Users\Martin\.gradle\caches\transforms-1\files-1.1\versionedparcelable-28.0.0.aar\b60cc10e41c664d09909b3c94d6f6302\AndroidManifest.xml:20:5-44
MERGED from [com.android.support:cursoradapter:28.0.0] C:\Users\Martin\.gradle\caches\transforms-1\files-1.1\cursoradapter-28.0.0.aar\ab0300b26962aeb5c529c3d0819bfd0e\AndroidManifest.xml:20:5-44
MERGED from [com.android.support:cursoradapter:28.0.0] C:\Users\Martin\.gradle\caches\transforms-1\files-1.1\cursoradapter-28.0.0.aar\ab0300b26962aeb5c529c3d0819bfd0e\AndroidManifest.xml:20:5-44
MERGED from [com.android.support:cardview-v7:28.0.0] C:\Users\Martin\.gradle\caches\transforms-1\files-1.1\cardview-v7-28.0.0.aar\b77dcf7f7336c1325d730cffa7bce11c\AndroidManifest.xml:20:5-44
MERGED from [com.android.support:cardview-v7:28.0.0] C:\Users\Martin\.gradle\caches\transforms-1\files-1.1\cardview-v7-28.0.0.aar\b77dcf7f7336c1325d730cffa7bce11c\AndroidManifest.xml:20:5-44
MERGED from [android.arch.lifecycle:runtime:1.1.1] C:\Users\Martin\.gradle\caches\transforms-1\files-1.1\runtime-1.1.1.aar\64eb65c73a736a1b82b891105c25142c\AndroidManifest.xml:20:5-44
MERGED from [android.arch.lifecycle:runtime:1.1.1] C:\Users\Martin\.gradle\caches\transforms-1\files-1.1\runtime-1.1.1.aar\64eb65c73a736a1b82b891105c25142c\AndroidManifest.xml:20:5-44
MERGED from [com.android.support:documentfile:28.0.0] C:\Users\Martin\.gradle\caches\transforms-1\files-1.1\documentfile-28.0.0.aar\055cb0e5d73d7f2193aeae4fd39bdb76\AndroidManifest.xml:20:5-44
MERGED from [com.android.support:documentfile:28.0.0] C:\Users\Martin\.gradle\caches\transforms-1\files-1.1\documentfile-28.0.0.aar\055cb0e5d73d7f2193aeae4fd39bdb76\AndroidManifest.xml:20:5-44
MERGED from [com.android.support:localbroadcastmanager:28.0.0] C:\Users\Martin\.gradle\caches\transforms-1\files-1.1\localbroadcastmanager-28.0.0.aar\77d14b4b5f725737b8a72bbe3ba6ae65\AndroidManifest.xml:20:5-44
MERGED from [com.android.support:localbroadcastmanager:28.0.0] C:\Users\Martin\.gradle\caches\transforms-1\files-1.1\localbroadcastmanager-28.0.0.aar\77d14b4b5f725737b8a72bbe3ba6ae65\AndroidManifest.xml:20:5-44
MERGED from [com.android.support:print:28.0.0] C:\Users\Martin\.gradle\caches\transforms-1\files-1.1\print-28.0.0.aar\352d54df7125ddd8cc08864d7659b20b\AndroidManifest.xml:20:5-44
MERGED from [com.android.support:print:28.0.0] C:\Users\Martin\.gradle\caches\transforms-1\files-1.1\print-28.0.0.aar\352d54df7125ddd8cc08864d7659b20b\AndroidManifest.xml:20:5-44
MERGED from [android.arch.lifecycle:viewmodel:1.1.1] C:\Users\Martin\.gradle\caches\transforms-1\files-1.1\viewmodel-1.1.1.aar\2a60589fa33d8b967f26cf34b9a5d12c\AndroidManifest.xml:20:5-44
MERGED from [android.arch.lifecycle:viewmodel:1.1.1] C:\Users\Martin\.gradle\caches\transforms-1\files-1.1\viewmodel-1.1.1.aar\2a60589fa33d8b967f26cf34b9a5d12c\AndroidManifest.xml:20:5-44
MERGED from [com.android.support:interpolator:28.0.0] C:\Users\Martin\.gradle\caches\transforms-1\files-1.1\interpolator-28.0.0.aar\06a08e2317fe4ecf754faea06561ec61\AndroidManifest.xml:20:5-44
MERGED from [com.android.support:interpolator:28.0.0] C:\Users\Martin\.gradle\caches\transforms-1\files-1.1\interpolator-28.0.0.aar\06a08e2317fe4ecf754faea06561ec61\AndroidManifest.xml:20:5-44
MERGED from [android.arch.lifecycle:livedata:1.1.1] C:\Users\Martin\.gradle\caches\transforms-1\files-1.1\livedata-1.1.1.aar\0d170dd3ab155543e1e789f214337d33\AndroidManifest.xml:20:5-44
MERGED from [android.arch.lifecycle:livedata:1.1.1] C:\Users\Martin\.gradle\caches\transforms-1\files-1.1\livedata-1.1.1.aar\0d170dd3ab155543e1e789f214337d33\AndroidManifest.xml:20:5-44
MERGED from [android.arch.lifecycle:livedata-core:1.1.1] C:\Users\Martin\.gradle\caches\transforms-1\files-1.1\livedata-core-1.1.1.aar\902104cecca89f252e3541b22f6979f1\AndroidManifest.xml:20:5-44
MERGED from [android.arch.lifecycle:livedata-core:1.1.1] C:\Users\Martin\.gradle\caches\transforms-1\files-1.1\livedata-core-1.1.1.aar\902104cecca89f252e3541b22f6979f1\AndroidManifest.xml:20:5-44
MERGED from [android.arch.core:runtime:1.1.1] C:\Users\Martin\.gradle\caches\transforms-1\files-1.1\runtime-1.1.1.aar\ad2883266826e505c26fdc454e7f6a91\AndroidManifest.xml:20:5-44
MERGED from [android.arch.core:runtime:1.1.1] C:\Users\Martin\.gradle\caches\transforms-1\files-1.1\runtime-1.1.1.aar\ad2883266826e505c26fdc454e7f6a91\AndroidManifest.xml:20:5-44
INJECTED from E:\Project Android\Registration\app\src\main\AndroidManifest.xml
INJECTED from E:\Project Android\Registration\app\src\main\AndroidManifest.xml
	android:targetSdkVersion
		INJECTED from E:\Project Android\Registration\app\src\main\AndroidManifest.xml
		ADDED from E:\Project Android\Registration\app\src\main\AndroidManifest.xml
		INJECTED from E:\Project Android\Registration\app\src\main\AndroidManifest.xml
	android:minSdkVersion
		INJECTED from E:\Project Android\Registration\app\src\main\AndroidManifest.xml
		ADDED from E:\Project Android\Registration\app\src\main\AndroidManifest.xml
		INJECTED from E:\Project Android\Registration\app\src\main\AndroidManifest.xml
